%YAML 1.1
%TAG !u! tag:unity3d.com,2011:
--- !u!74 &7400000
AnimationClip:
  m_ObjectHideFlags: 0
  m_PrefabParentObject: {fileID: 0}
  m_PrefabInternal: {fileID: 0}
  m_Name: BirdLeg_anim
  serializedVersion: 4
  m_AnimationType: 2
  m_Compressed: 0
  m_UseHighQualityCurve: 1
  m_RotationCurves: []
  m_CompressedRotationCurves: []
  m_PositionCurves: []
  m_ScaleCurves: []
  m_FloatCurves: []
  m_PPtrCurves:
  - curve:
    - time: 0
      value: {fileID: 21300000, guid: 7bd4074e5698fd74eb0d0613972f3c08, type: 3}
    - time: .0416666679
      value: {fileID: 21300002, guid: 7bd4074e5698fd74eb0d0613972f3c08, type: 3}
    - time: .0833333358
      value: {fileID: 21300004, guid: 7bd4074e5698fd74eb0d0613972f3c08, type: 3}
    - time: .125
      value: {fileID: 21300006, guid: 7bd4074e5698fd74eb0d0613972f3c08, type: 3}
    - time: .166666672
      value: {fileID: 21300008, guid: 7bd4074e5698fd74eb0d0613972f3c08, type: 3}
    - time: .208333328
      value: {fileID: 21300010, guid: 7bd4074e5698fd74eb0d0613972f3c08, type: 3}
    - time: .25
      value: {fileID: 21300012, guid: 7bd4074e5698fd74eb0d0613972f3c08, type: 3}
    - time: .291666657
      value: {fileID: 21300014, guid: 7bd4074e5698fd74eb0d0613972f3c08, type: 3}
    - time: .333333343
      value: {fileID: 21300016, guid: 7bd4074e5698fd74eb0d0613972f3c08, type: 3}
    - time: .375
      value: {fileID: 21300000, guid: 7bd4074e5698fd74eb0d0613972f3c08, type: 3}
    - time: 2.29166675
      value: {fileID: 21300000, guid: 7bd4074e5698fd74eb0d0613972f3c08, type: 3}
    - time: 2.33333325
      value: {fileID: 21300002, guid: 7bd4074e5698fd74eb0d0613972f3c08, type: 3}
    - time: 2.375
      value: {fileID: 21300004, guid: 7bd4074e5698fd74eb0d0613972f3c08, type: 3}
    - time: 2.41666675
      value: {fileID: 21300006, guid: 7bd4074e5698fd74eb0d0613972f3c08, type: 3}
    - time: 2.45833325
      value: {fileID: 21300008, guid: 7bd4074e5698fd74eb0d0613972f3c08, type: 3}
    - time: 2.5
      value: {fileID: 21300010, guid: 7bd4074e5698fd74eb0d0613972f3c08, type: 3}
    - time: 2.54166675
      value: {fileID: 21300012, guid: 7bd4074e5698fd74eb0d0613972f3c08, type: 3}
    - time: 2.58333325
      value: {fileID: 21300014, guid: 7bd4074e5698fd74eb0d0613972f3c08, type: 3}
    - time: 2.625
      value: {fileID: 21300016, guid: 7bd4074e5698fd74eb0d0613972f3c08, type: 3}
    - time: 2.66666675
      value: {fileID: 21300000, guid: 7bd4074e5698fd74eb0d0613972f3c08, type: 3}
    - time: 2.70833325
      value: {fileID: 21300000, guid: 7bd4074e5698fd74eb0d0613972f3c08, type: 3}
    - time: 2.75
      value: {fileID: 21300002, guid: 7bd4074e5698fd74eb0d0613972f3c08, type: 3}
    - time: 2.79166675
      value: {fileID: 21300004, guid: 7bd4074e5698fd74eb0d0613972f3c08, type: 3}
    - time: 2.83333325
      value: {fileID: 21300006, guid: 7bd4074e5698fd74eb0d0613972f3c08, type: 3}
    - time: 2.875
      value: {fileID: 21300008, guid: 7bd4074e5698fd74eb0d0613972f3c08, type: 3}
    - time: 2.91666675
      value: {fileID: 21300010, guid: 7bd4074e5698fd74eb0d0613972f3c08, type: 3}
    - time: 2.95833325
      value: {fileID: 21300012, guid: 7bd4074e5698fd74eb0d0613972f3c08, type: 3}
    - time: 3
      value: {fileID: 21300014, guid: 7bd4074e5698fd74eb0d0613972f3c08, type: 3}
    - time: 3.04166675
      value: {fileID: 21300016, guid: 7bd4074e5698fd74eb0d0613972f3c08, type: 3}
    - time: 3.08333325
      value: {fileID: 21300000, guid: 7bd4074e5698fd74eb0d0613972f3c08, type: 3}
    - time: 3.125
      value: {fileID: 21300000, guid: 7bd4074e5698fd74eb0d0613972f3c08, type: 3}
    - time: 8.75
      value: {fileID: 21300000, guid: 7bd4074e5698fd74eb0d0613972f3c08, type: 3}
    attribute: m_Sprite
    path: 
    classID: 212
    script: {fileID: 0}
  m_SampleRate: 24
  m_WrapMode: 0
  m_Bounds:
    m_Center: {x: 0, y: 0, z: 0}
    m_Extent: {x: 0, y: 0, z: 0}
  m_ClipBindingConstant:
    genericBindings:
    - path: 0
      attribute: 0
      script: {fileID: 0}
      classID: 212
      customType: 23
      isPPtrCurve: 1
    pptrCurveMapping:
    - {fileID: 21300000, guid: 7bd4074e5698fd74eb0d0613972f3c08, type: 3}
    - {fileID: 21300002, guid: 7bd4074e5698fd74eb0d0613972f3c08, type: 3}
    - {fileID: 21300004, guid: 7bd4074e5698fd74eb0d0613972f3c08, type: 3}
    - {fileID: 21300006, guid: 7bd4074e5698fd74eb0d0613972f3c08, type: 3}
    - {fileID: 21300008, guid: 7bd4074e5698fd74eb0d0613972f3c08, type: 3}
    - {fileID: 21300010, guid: 7bd4074e5698fd74eb0d0613972f3c08, type: 3}
    - {fileID: 21300012, guid: 7bd4074e5698fd74eb0d0613972f3c08, type: 3}
    - {fileID: 21300014, guid: 7bd4074e5698fd74eb0d0613972f3c08, type: 3}
    - {fileID: 21300016, guid: 7bd4074e5698fd74eb0d0613972f3c08, type: 3}
    - {fileID: 21300000, guid: 7bd4074e5698fd74eb0d0613972f3c08, type: 3}
    - {fileID: 21300000, guid: 7bd4074e5698fd74eb0d0613972f3c08, type: 3}
    - {fileID: 21300002, guid: 7bd4074e5698fd74eb0d0613972f3c08, type: 3}
    - {fileID: 21300004, guid: 7bd4074e5698fd74eb0d0613972f3c08, type: 3}
    - {fileID: 21300006, guid: 7bd4074e5698fd74eb0d0613972f3c08, type: 3}
    - {fileID: 21300008, guid: 7bd4074e5698fd74eb0d0613972f3c08, type: 3}
    - {fileID: 21300010, guid: 7bd4074e5698fd74eb0d0613972f3c08, type: 3}
    - {fileID: 21300012, guid: 7bd4074e5698fd74eb0d0613972f3c08, type: 3}
    - {fileID: 21300014, guid: 7bd4074e5698fd74eb0d0613972f3c08, type: 3}
    - {fileID: 21300016, guid: 7bd4074e5698fd74eb0d0613972f3c08, type: 3}
    - {fileID: 21300000, guid: 7bd4074e5698fd74eb0d0613972f3c08, type: 3}
    - {fileID: 21300000, guid: 7bd4074e5698fd74eb0d0613972f3c08, type: 3}
    - {fileID: 21300002, guid: 7bd4074e5698fd74eb0d0613972f3c08, type: 3}
    - {fileID: 21300004, guid: 7bd4074e5698fd74eb0d0613972f3c08, type: 3}
    - {fileID: 21300006, guid: 7bd4074e5698fd74eb0d0613972f3c08, type: 3}
    - {fileID: 21300008, guid: 7bd4074e5698fd74eb0d0613972f3c08, type: 3}
    - {fileID: 21300010, guid: 7bd4074e5698fd74eb0d0613972f3c08, type: 3}
    - {fileID: 21300012, guid: 7bd4074e5698fd74eb0d0613972f3c08, type: 3}
    - {fileID: 21300014, guid: 7bd4074e5698fd74eb0d0613972f3c08, type: 3}
    - {fileID: 21300016, guid: 7bd4074e5698fd74eb0d0613972f3c08, type: 3}
    - {fileID: 21300000, guid: 7bd4074e5698fd74eb0d0613972f3c08, type: 3}
    - {fileID: 21300000, guid: 7bd4074e5698fd74eb0d0613972f3c08, type: 3}
    - {fileID: 21300000, guid: 7bd4074e5698fd74eb0d0613972f3c08, type: 3}
  m_AnimationClipSettings:
    serializedVersion: 2
    m_StartTime: 0
    m_StopTime: 8.79166698
    m_OrientationOffsetY: 0
    m_Level: 0
    m_CycleOffset: 0
    m_LoopTime: 1
    m_LoopBlend: 0
    m_LoopBlendOrientation: 0
    m_LoopBlendPositionY: 0
    m_LoopBlendPositionXZ: 0
    m_KeepOriginalOrientation: 0
    m_KeepOriginalPositionY: 1
    m_KeepOriginalPositionXZ: 0
    m_HeightFromFeet: 0
    m_Mirror: 0
  m_EditorCurves: []
  m_EulerEditorCurves: []
  m_Events: []
