%YAML 1.1
%TAG !u! tag:unity3d.com,2011:
--- !u!74 &7400000
AnimationClip:
  m_ObjectHideFlags: 0
  m_PrefabParentObject: {fileID: 0}
  m_PrefabInternal: {fileID: 0}
  m_Name: Petal
  serializedVersion: 4
  m_AnimationType: 2
  m_Compressed: 0
  m_UseHighQualityCurve: 1
  m_RotationCurves: []
  m_CompressedRotationCurves: []
  m_PositionCurves:
  - curve:
      serializedVersion: 2
      m_Curve:
      - time: 0
        value: {x: .0244871676, y: .00448299386, z: 0}
        inSlope: {x: 0, y: 0, z: 0}
        outSlope: {x: 0, y: 0, z: 0}
        tangentMode: 160985368
      - time: .666666687
        value: {x: .0244871676, y: .00448299386, z: 0}
        inSlope: {x: 0, y: 0, z: 0}
        outSlope: {x: 0, y: 0, z: 0}
        tangentMode: 146407425
      m_PreInfinity: 2
      m_PostInfinity: 2
    path: 
  m_ScaleCurves:
  - curve:
      serializedVersion: 2
      m_Curve:
      - time: 0
        value: {x: .114418969, y: .114419132, z: .0918089002}
        inSlope: {x: -.0267432779, y: -.0267435685, z: 0}
        outSlope: {x: -.0267432779, y: -.0267435685, z: 0}
        tangentMode: 1037570765
      - time: .333333343
        value: {x: .105504543, y: .10550461, z: .0918089002}
        inSlope: {x: 0, y: 0, z: 0}
        outSlope: {x: 0, y: 0, z: 0}
        tangentMode: 1042555487
      - time: .666666687
        value: {x: .114418969, y: .114419132, z: .0918089002}
        inSlope: {x: .0267432779, y: .0267435685, z: 0}
        outSlope: {x: .0267432779, y: .0267435685, z: 0}
        tangentMode: 1037570765
      m_PreInfinity: 2
      m_PostInfinity: 2
    path: 
  m_FloatCurves: []
  m_PPtrCurves:
  - curve:
    - time: 0
      value: {fileID: 21300000, guid: 76697a7e67f29d64b8cee524bb59ab9f, type: 3}
    - time: .0833333358
      value: {fileID: 21300002, guid: 76697a7e67f29d64b8cee524bb59ab9f, type: 3}
    - time: .166666672
      value: {fileID: 21300004, guid: 76697a7e67f29d64b8cee524bb59ab9f, type: 3}
    - time: .25
      value: {fileID: 21300006, guid: 76697a7e67f29d64b8cee524bb59ab9f, type: 3}
    - time: .333333343
      value: {fileID: 21300008, guid: 76697a7e67f29d64b8cee524bb59ab9f, type: 3}
    - time: .416666657
      value: {fileID: 21300010, guid: 76697a7e67f29d64b8cee524bb59ab9f, type: 3}
    - time: .5
      value: {fileID: 21300012, guid: 76697a7e67f29d64b8cee524bb59ab9f, type: 3}
    - time: .583333313
      value: {fileID: 21300014, guid: 76697a7e67f29d64b8cee524bb59ab9f, type: 3}
    - time: .666666687
      value: {fileID: 21300016, guid: 76697a7e67f29d64b8cee524bb59ab9f, type: 3}
    attribute: m_Sprite
    path: 
    classID: 212
    script: {fileID: 0}
  m_SampleRate: 12
  m_WrapMode: 0
  m_Bounds:
    m_Center: {x: 0, y: 0, z: 0}
    m_Extent: {x: 0, y: 0, z: 0}
  m_ClipBindingConstant:
    genericBindings:
    - path: 0
      attribute: 3
      script: {fileID: 0}
      classID: 4
      customType: 0
      isPPtrCurve: 0
    - path: 0
      attribute: 0
      script: {fileID: 0}
      classID: 212
      customType: 23
      isPPtrCurve: 1
    - path: 0
      attribute: 1
      script: {fileID: 0}
      classID: 4
      customType: 0
      isPPtrCurve: 0
    pptrCurveMapping:
    - {fileID: 21300000, guid: 76697a7e67f29d64b8cee524bb59ab9f, type: 3}
    - {fileID: 21300002, guid: 76697a7e67f29d64b8cee524bb59ab9f, type: 3}
    - {fileID: 21300004, guid: 76697a7e67f29d64b8cee524bb59ab9f, type: 3}
    - {fileID: 21300006, guid: 76697a7e67f29d64b8cee524bb59ab9f, type: 3}
    - {fileID: 21300008, guid: 76697a7e67f29d64b8cee524bb59ab9f, type: 3}
    - {fileID: 21300010, guid: 76697a7e67f29d64b8cee524bb59ab9f, type: 3}
    - {fileID: 21300012, guid: 76697a7e67f29d64b8cee524bb59ab9f, type: 3}
    - {fileID: 21300014, guid: 76697a7e67f29d64b8cee524bb59ab9f, type: 3}
    - {fileID: 21300016, guid: 76697a7e67f29d64b8cee524bb59ab9f, type: 3}
  m_AnimationClipSettings:
    serializedVersion: 2
    m_StartTime: 0
    m_StopTime: .75
    m_OrientationOffsetY: 0
    m_Level: 0
    m_CycleOffset: 0
    m_LoopTime: 1
    m_LoopBlend: 0
    m_LoopBlendOrientation: 0
    m_LoopBlendPositionY: 0
    m_LoopBlendPositionXZ: 0
    m_KeepOriginalOrientation: 0
    m_KeepOriginalPositionY: 1
    m_KeepOriginalPositionXZ: 0
    m_HeightFromFeet: 0
    m_Mirror: 0
  m_EditorCurves:
  - curve:
      serializedVersion: 2
      m_Curve:
      - time: 0
        value: .114418969
        inSlope: -.0267432779
        outSlope: -.0267432779
        tangentMode: 10
      - time: .333333343
        value: .105504543
        inSlope: 0
        outSlope: 0
        tangentMode: 10
      - time: .666666687
        value: .114418969
        inSlope: .0267432779
        outSlope: .0267432779
        tangentMode: 10
      m_PreInfinity: 2
      m_PostInfinity: 2
    attribute: m_LocalScale.x
    path: 
    classID: 4
    script: {fileID: 0}
  - curve:
      serializedVersion: 2
      m_Curve:
      - time: 0
        value: .114419132
        inSlope: -.0267435685
        outSlope: -.0267435685
        tangentMode: 10
      - time: .333333343
        value: .10550461
        inSlope: 0
        outSlope: 0
        tangentMode: 10
      - time: .666666687
        value: .114419132
        inSlope: .0267435685
        outSlope: .0267435685
        tangentMode: 10
      m_PreInfinity: 2
      m_PostInfinity: 2
    attribute: m_LocalScale.y
    path: 
    classID: 4
    script: {fileID: 0}
  - curve:
      serializedVersion: 2
      m_Curve:
      - time: 0
        value: .0918089002
        inSlope: 0
        outSlope: 0
        tangentMode: 10
      - time: .333333343
        value: .0918089002
        inSlope: 0
        outSlope: 0
        tangentMode: 10
      - time: .666666687
        value: .0918089002
        inSlope: 0
        outSlope: 0
        tangentMode: 10
      m_PreInfinity: 2
      m_PostInfinity: 2
    attribute: m_LocalScale.z
    path: 
    classID: 4
    script: {fileID: 0}
  - curve:
      serializedVersion: 2
      m_Curve:
      - time: 0
        value: .0244871676
        inSlope: 0
        outSlope: 0
        tangentMode: 10
      - time: .666666687
        value: .0244871676
        inSlope: 0
        outSlope: 0
        tangentMode: 10
      m_PreInfinity: 2
      m_PostInfinity: 2
    attribute: m_LocalPosition.x
    path: 
    classID: 4
    script: {fileID: 0}
  - curve:
      serializedVersion: 2
      m_Curve:
      - time: 0
        value: .00448299386
        inSlope: 0
        outSlope: 0
        tangentMode: 10
      - time: .666666687
        value: .00448299386
        inSlope: 0
        outSlope: 0
        tangentMode: 10
      m_PreInfinity: 2
      m_PostInfinity: 2
    attribute: m_LocalPosition.y
    path: 
    classID: 4
    script: {fileID: 0}
  - curve:
      serializedVersion: 2
      m_Curve:
      - time: 0
        value: 0
        inSlope: 0
        outSlope: 0
        tangentMode: 10
      - time: .666666687
        value: 0
        inSlope: 0
        outSlope: 0
        tangentMode: 10
      m_PreInfinity: 2
      m_PostInfinity: 2
    attribute: m_LocalPosition.z
    path: 
    classID: 4
    script: {fileID: 0}
  m_EulerEditorCurves: []
  m_Events: []
