%YAML 1.1
%TAG !u! tag:unity3d.com,2011:
--- !u!74 &7400000
AnimationClip:
  m_ObjectHideFlags: 0
  m_PrefabParentObject: {fileID: 0}
  m_PrefabInternal: {fileID: 0}
  m_Name: Leaf_anim
  serializedVersion: 4
  m_AnimationType: 2
  m_Compressed: 0
  m_UseHighQualityCurve: 1
  m_RotationCurves: []
  m_CompressedRotationCurves: []
  m_PositionCurves: []
  m_ScaleCurves: []
  m_FloatCurves: []
  m_PPtrCurves:
  - curve:
    - time: 0
      value: {fileID: 21300000, guid: 801befda7d09e614492ae0c83172aaad, type: 3}
    - time: .166666672
      value: {fileID: 21300002, guid: 801befda7d09e614492ae0c83172aaad, type: 3}
    - time: .333333343
      value: {fileID: 21300004, guid: 801befda7d09e614492ae0c83172aaad, type: 3}
    - time: .5
      value: {fileID: 21300006, guid: 801befda7d09e614492ae0c83172aaad, type: 3}
    - time: .666666687
      value: {fileID: 21300008, guid: 801befda7d09e614492ae0c83172aaad, type: 3}
    - time: .833333313
      value: {fileID: 21300010, guid: 801befda7d09e614492ae0c83172aaad, type: 3}
    - time: 1
      value: {fileID: 21300012, guid: 801befda7d09e614492ae0c83172aaad, type: 3}
    - time: 1.16666663
      value: {fileID: 21300014, guid: 801befda7d09e614492ae0c83172aaad, type: 3}
    - time: 1.33333337
      value: {fileID: 21300016, guid: 801befda7d09e614492ae0c83172aaad, type: 3}
    - time: 1.5
      value: {fileID: 21300018, guid: 801befda7d09e614492ae0c83172aaad, type: 3}
    - time: 1.66666663
      value: {fileID: 21300020, guid: 801befda7d09e614492ae0c83172aaad, type: 3}
    - time: 1.83333337
      value: {fileID: 21300022, guid: 801befda7d09e614492ae0c83172aaad, type: 3}
    - time: 2
      value: {fileID: 21300024, guid: 801befda7d09e614492ae0c83172aaad, type: 3}
    attribute: m_Sprite
    path: 
    classID: 212
    script: {fileID: 0}
  m_SampleRate: 6
  m_WrapMode: 0
  m_Bounds:
    m_Center: {x: 0, y: 0, z: 0}
    m_Extent: {x: 0, y: 0, z: 0}
  m_ClipBindingConstant:
    genericBindings:
    - path: 0
      attribute: 0
      script: {fileID: 0}
      classID: 212
      customType: 23
      isPPtrCurve: 1
    pptrCurveMapping:
    - {fileID: 21300000, guid: 801befda7d09e614492ae0c83172aaad, type: 3}
    - {fileID: 21300002, guid: 801befda7d09e614492ae0c83172aaad, type: 3}
    - {fileID: 21300004, guid: 801befda7d09e614492ae0c83172aaad, type: 3}
    - {fileID: 21300006, guid: 801befda7d09e614492ae0c83172aaad, type: 3}
    - {fileID: 21300008, guid: 801befda7d09e614492ae0c83172aaad, type: 3}
    - {fileID: 21300010, guid: 801befda7d09e614492ae0c83172aaad, type: 3}
    - {fileID: 21300012, guid: 801befda7d09e614492ae0c83172aaad, type: 3}
    - {fileID: 21300014, guid: 801befda7d09e614492ae0c83172aaad, type: 3}
    - {fileID: 21300016, guid: 801befda7d09e614492ae0c83172aaad, type: 3}
    - {fileID: 21300018, guid: 801befda7d09e614492ae0c83172aaad, type: 3}
    - {fileID: 21300020, guid: 801befda7d09e614492ae0c83172aaad, type: 3}
    - {fileID: 21300022, guid: 801befda7d09e614492ae0c83172aaad, type: 3}
    - {fileID: 21300024, guid: 801befda7d09e614492ae0c83172aaad, type: 3}
  m_AnimationClipSettings:
    serializedVersion: 2
    m_StartTime: 0
    m_StopTime: 2.16666675
    m_OrientationOffsetY: 0
    m_Level: 0
    m_CycleOffset: 0
    m_LoopTime: 1
    m_LoopBlend: 0
    m_LoopBlendOrientation: 0
    m_LoopBlendPositionY: 0
    m_LoopBlendPositionXZ: 0
    m_KeepOriginalOrientation: 0
    m_KeepOriginalPositionY: 1
    m_KeepOriginalPositionXZ: 0
    m_HeightFromFeet: 0
    m_Mirror: 0
  m_EditorCurves: []
  m_EulerEditorCurves: []
  m_Events: []
